{
  "siteTitle": "Genuine - UI Templates",
  "icons": [
    "facebook",
    "instagram",
    "linkedin",
    "twitter",
    "youtube"
  ],
  "primaryNavItems": [
    {
      "name": "Home",
      "link": "#",
      "className": "primary-navigation__item--home"
    },
    {
      "name": "About",
      "link": "#",
      "className": "primary-navigation__item--about"
    },
    {
      "name": "Contact Us",
      "link": "#",
      "className": "primary-navigation__item--contact-us"
    }
  ]
}
