{
  "title": "Front End Template Directory",
  "templates": [
    {
      "title": "T1 Homepage",
      "url": "t01-homepage.html",
      "status": "not-started",
      "wireframe": "",
      "desktop": "",
      "mobile": "",
      "annotations": ""
    },
    {
      "title": "T02 - Inner Page",
      "url": "t02-inner-page.html",
      "status": "not-started",
      "wireframe": "",
      "desktop": "",
      "mobile": "",
      "annotations": ""
    }
  ],
  "utilityLinks": [
    {
      "name": "Base Style Guide",
      "link": "_styleguide.html"
    },
    {
      "name": "Webpack Bundle Analyzer report",
      "link": "scripts/report.html",
      "external": true
    }
  ]
}
