<svg width="0" height="0" class="hidden">
  <symbol xmlns="http://www.w3.org/2000/svg" viewBox="0 0 400 400" id="icon-facebook">
    <path d="M240.62 117h23.49V77c-4-.5-18-1.5-34.49-1.5-33.5 0-56.49 20.49-56.49 58.49v35h-37.49v44h37.49v111.46h45.49V213h36l5.5-44h-41.5v-30.51c0-13 3.5-21.49 22-21.49z"></path>
  </symbol>
  <symbol xmlns="http://www.w3.org/2000/svg" viewBox="0 0 400 400" id="icon-instagram">
    <path d="M200 85.4c-31.09 0-35 .14-47.18.68s-20.49 2.49-27.82 5.33a58.5 58.5 0 00-33.48 33.47c-2.83 7.3-4.76 15.6-5.32 27.79s-.69 16.09-.69 47.18.14 35 .69 47.18 2.49 20.49 5.32 27.78A58.48 58.48 0 00125 308.29c7.3 2.82 15.6 4.76 27.78 5.32s16.09.69 47.18.69 35-.15 47.18-.69 20.49-2.5 27.78-5.32a58.48 58.48 0 0033.48-33.48c2.82-7.29 4.76-15.6 5.32-27.78s.69-16.09.69-47.18-.14-35-.69-47.18-2.5-20.5-5.32-27.79a56.22 56.22 0 00-13.2-20.27 55.62 55.62 0 00-20.2-13.2c-7.29-2.84-15.6-4.76-27.78-5.33s-16.13-.68-47.22-.68zm0 20.6c30.55 0 34.19.15 46.26.68 11.16.52 17.21 2.37 21.24 3.95a37.66 37.66 0 0121.72 21.72c1.57 4 3.44 10.08 3.94 21.24.55 12.08.67 15.7.67 46.26s-.14 34.19-.71 46.25c-.58 11.16-2.44 17.22-4 21.24a36.3 36.3 0 01-8.58 13.18 35.56 35.56 0 01-13.16 8.55c-4 1.56-10.15 3.43-21.31 3.94-12.15.54-15.73.67-46.35.67s-34.2-.15-46.34-.71c-11.17-.58-17.32-2.44-21.32-4a35.48 35.48 0 01-13.16-8.58 34.74 34.74 0 01-8.58-13.16c-1.57-4-3.42-10.16-4-21.32-.43-12-.58-15.72-.58-46.2s.15-34.2.58-46.36c.59-11.16 2.44-17.3 4-21.3a38 38 0 0121.74-21.74c4-1.58 10-3.44 21.18-4 12.16-.42 15.74-.57 46.34-.57zm0 35.08a58.77 58.77 0 1058.77 58.77A58.76 58.76 0 00200 141.08zm0 96.92a38.15 38.15 0 1138.15-38.15A38.14 38.14 0 01200 238zm74.83-99.24A13.74 13.74 0 11261.1 125a13.74 13.74 0 0113.73 13.76z"></path>
  </symbol>
  <symbol xmlns="http://www.w3.org/2000/svg" viewBox="0 0 400 400" id="icon-linkedin">
    <path d="M139.9 293.14h-44V152.63h43.59v140.51Zm-22-160a25.4 25.4 0 1 1 25.4-25.39 25.47 25.47 0 0 1-25.41 25.41Zm185.37 160h-43.6v-68.56c0-16.51-.42-37.25-22.85-37.25-22.86 0-26.24 17.78-26.24 36v69.83H167V152.63h41.9v19h.42c5.92-11 19.89-22.85 41.48-22.85 44.43 0 52.47 29.2 52.47 66.87Z"/>
  </symbol>
  <symbol xmlns="http://www.w3.org/2000/svg" viewBox="0 0 400 400" id="icon-twitter">
    <path d="M302 147v6.79c0 70.52-53.81 152-152 152a146.28 146.28 0 01-82-23.5 105.25 105.25 0 0013.06.52 105.38 105.38 0 0066.34-23 53.5 53.5 0 01-50.15-37.09 63 63 0 009.93 1 64.48 64.48 0 0014.1-1.57c-24.61-5.15-42.9-26.6-42.9-52.15v-.52a74 74 0 0024.56 6.27 52.92 52.92 0 01-24-44.41 54.26 54.26 0 017.31-27.16A150.84 150.84 0 00196.44 160a50.88 50.88 0 01-1.56-12 53.94 53.94 0 0193-37.09 99.67 99.67 0 0034-13.06 52.65 52.65 0 01-23.51 29.26 99.67 99.67 0 0030.82-8.36A126.71 126.71 0 01302 147z"></path>
  </symbol>
  <symbol xmlns="http://www.w3.org/2000/svg" viewBox="0 0 400 400" id="icon-youtube">
    <path d="M333.35 133.42c-3.35-12.21-12.76-21.65-24.42-24.42-21.64-6.11-108.23-6.11-108.23-6.11s-86.58 0-108.23 6.11a33.84 33.84 0 00-25 24.42c-5.55 21.65-5.55 67.16-5.55 67.16s0 45.51 5.55 67.16a35 35 0 0024.43 24.42c22.2 5.55 108.78 5.55 108.78 5.55s86.59 0 108.23-6.11a35 35 0 0024.42-24.42c5.57-21.64 5.57-67.18 5.57-67.18s0-44.93-5.55-66.58zm-161 108.23v-82.14l72.7 41.07z"></path>
  </symbol>
</svg>